…
An example of correctly formated formated data.
```r
# A tibble: 7,055,881 x 11
   SNP           CHR    POS Effect_allele Non_Effect_allele     EAF    Beta     SE     P         r2     N
   <chr>       <int>  <int> <chr>         <chr>               <dbl>   <dbl>  <dbl> <dbl>      <dbl> <int>
 1 rs28544273      1 751343 A             T                 NA      -0.0146 0.0338 0.665 NA         54162
 2 rs143225517     1 751756 C             T                  0.847  -0.0146 0.0338 0.665  0.0000552 54162
 3 rs3094315       1 752566 G             A                  0.826  -0.0122 0.0294 0.677  0.0000427 54162
 4 rs61770173      1 753405 C             A                  0.824  -0.0126 0.0339 0.710  0.0000461 54162
 5 rs2977608       1 768253 A             C                  0.267  -0.0394 0.0261 0.131  0.000607  54162
 6 rs77786510      1 768448 A             G                 NA      -0.0385 0.0303 0.203 NA         54162
 7 rs7518545       1 769963 A             G                  0.0927 -0.0471 0.036  0.190  0.000373  54162
 8 rs112856858     1 845274 T             G                  0.221   0.0234 0.0329 0.477  0.000188  54162
 9 rs117086422     1 845635 T             C                  0.187   0.0317 0.0303 0.294  0.000306  54162
10 rs57760052      1 845938 A             G                  0.232   0.0307 0.0295 0.297  0.000336  54162
# ... with 7,055,871 more rows
```
…
